[
	{
		"crxUserId": "autoadmin",
		"crxPassword": "auto$admin89",
		"aemUserId": "automationuser",
		"aemPassword": "A$t0mat@0nuser"
	},
	{
		"crxUserId": "autoadmin1",
		"crxPassword": "A$t0mat@0nuser",
		"aemUserId": "autoadmin1@sapient.com",
		"aemPassword": "A$t0mat@0nuser"
	},
	{
		"crxUserId": "autoadmin2",
		"crxPassword": "A$t0mat@0nuser",
		"aemUserId": "autoadmin2@sapient.com",
		"aemPassword": "A$t0mat@0nuser"
	},
	{
		"crxUserId": "autoadmin3",
		"crxPassword": "A$t0mat@0nuser",
		"aemUserId": "autoadmin3@sapient.com",
		"aemPassword": "A$t0mat@0nuser"
	},
	{
		"crxUserId": "autoadmin4",
		"crxPassword": "A$t0mat@0nuser",
		"aemUserId": "autoadmin4@sapient.com",
		"aemPassword": "A$t0mat@0nuser"
	},
	{
		"crxUserId": "autoadmin5",
		"crxPassword": "A$t0mat@0nuser",
		"aemUserId": "autoadmin5@sapient.com",
		"aemPassword": "A$t0mat@0nuser"
	},
	{
		"crxUserId": "autoadmin6",
		"crxPassword": "A$t0mat@0nuser",
		"aemUserId": "autoadmin6@sapient.com",
		"aemPassword": "A$t0mat@0nuser"
	},
	{
		"crxUserId": "autoadmin7",
		"crxPassword": "A$t0mat@0nuser",
		"aemUserId": "autoadmin7@sapient.com",
		"aemPassword": "A$t0mat@0nuser"
	},
	{
		"crxUserId": "autoadmin8",
		"crxPassword": "A$t0mat@0nuser",
		"aemUserId": "autoadmin8@sapient.com",
		"aemPassword": "A$t0mat@0nuser"
	},
	{
		"crxUserId": "autoadmin9",
		"crxPassword": "A$t0mat@0nuser",
		"aemUserId": "autoadmin9@sapient.com",
		"aemPassword": "A$t0mat@0nuser"
	},
	{
		"crxUserId": "autoadmin10",
		"crxPassword": "A$t0mat@0nuser",
		"aemUserId": "autoadmin10@sapient.com",
		"aemPassword": "A$t0mat@0nuser"
	},
	{
		"crxUserId": "autoadmin11",
		"crxPassword": "A$t0mat@0nuser",
		"aemUserId": "autoadmin11@sapient.com",
		"aemPassword": "A$t0mat@0nuser"
	}
]
